…
# Remove quotation marks and collapse multiple whitespaces
cleanedAllTweets$text <- gsub("'", '', cleanedAllTweets$text)
cleanedAllTweets$text <- gsub("\"", '', cleanedAllTweets$text)
cleanedAllTweets$text <- gsub("\\s+", " ", str_trim(cleanedAllTweets$text))

### Tidy tweets using tidytext
tidy_tweets <- cleanedAllTweets %>% mutate(text = str_replace_all(text, "https://t.co/[A-Za-z\\d]+|http://[A-Za-z\\d]+|&amp;|&lt;|&gt;|RT|https", "")) %>% unnest_tokens(word, text, token = "regex", pattern = "([^A-Za-z_\\d#@']|'(?![A-Za-z_\\d#@]))") %>% filter(!word %in% stop_words$word, str_detect(word, "[a-z]"))

##### Get word frequency using tidyr
frequency <- tidy_tweets %>% group_by(person) %>% count(word, sort = TRUE) %>% left_join(tidy_tweets %>% group_by(person) %>% summarise(total = n())) %>% mutate(freq = n/total)
# > frequency
# Source: local data frame [29,589 x 5]
# Groups: person [2]
#
#    person             word     n  total        freq
#     <chr>            <chr> <int>  <int>       <dbl>
# 1  Donald            trump  1991 142627 0.013959489
# 2  Donald            obama  1128 142627 0.007908741
# 3  Donald           people   978 142627 0.006857047
# 4  Ivanka             tips   812  64851 0.012521010
# 5  Donald             time   715 142627 0.005013076
# 6  Donald @realdonaldtrump   706 142627 0.004949974
# 7  Donald           donald   673 142627 0.004718602
# 8  Donald          america   665 142627 0.004662511
# 9  Ivanka     @ivankatrump   569  64851 0.008773959
# 10 Donald        president   559 142627 0.003919314
# # ... with 29,579 more rows

frequency <- frequency %>% select(person, word, freq) %>% spread(person, freq) %>% arrange(Donald, Ivanka)
frequency

# # A tibble: 24,444 × 3
#               word       Donald       Ivanka
#              <chr>        <dbl>        <dbl>
# 1          @10best 7.011295e-06 1.541996e-05
# 2   @britneyspears 7.011295e-06 1.541996e-05
# 3   @callmemrwayne 7.011295e-06 1.541996e-05
# 4     @charlierose 7.011295e-06 1.541996e-05
# 5    @claretourism 7.011295e-06 1.541996e-05
# 6  @coachdanmullen 7.011295e-06 1.541996e-05
# 7        @dabg3241 7.011295e-06 1.541996e-05
# 8  @dailymailceleb 7.011295e-06 1.541996e-05
# 9           @doral 7.011295e-06 1.541996e-05
# 10  @drudge_report 7.011295e-06 1.541996e-05
# # ... with 24,434 more rows
…
